<?xml version="1.0" encoding="UTF-8"?>
<svg width="16px" height="16px" viewBox="0 0 16 16" version="1.1" xmlns="http://www.w3.org/2000/svg" xmlns:xlink="http://www.w3.org/1999/xlink">
    <title>Artboard</title>
    <g id="Artboard" stroke="none" stroke-width="1" fill="none" fill-rule="evenodd">
        <g id="Overrides-/-Checkbox-/-unchecked-Copy-11" stroke="#9E9E9E">
            <rect id="Rectangle" x="0.5" y="0.5" width="15" height="15"></rect>
        </g>
    </g>
</svg>